[{
    "model": "questionnaire.RankLabel",
    "pk": 0,
    "fields": {
      "title": "Unknown", 
      "rank":"0",
      "order": 0
    }
  }, 
 {
    "model": "questionnaire.RankLabel",
    "pk": 1,
    "fields": {
      "title": "1.totally dissatisfied", 
      "rank":"1",
      "order":1     
    }
  },
    {
    "model": "questionnaire.RankLabel",
    "pk": 2,
    "fields": {
      "title": "2.very dissatisfied", 
      "rank":"2",
      "order": 2
    }
  }, 
    {
    "model": "questionnaire.RankLabel",
    "pk": 3,
    "fields": {
      "title": "3.fairly dissatisfied", 
      "rank":"3",
      "order":3     
    }
  }, 
    {
    "model": "questionnaire.RankLabel",
    "pk": 4,
    "fields": {
      "title": "4.in the middle", 
      "rank":"4",
      "order": 4    
    }
  }, 
    {
    "model": "questionnaire.RankLabel",
    "pk": 5,
    "fields": {
      "title": "5.fairly satisfied", 
      "rank":"5",
      "order": 5    
    }
  }, 
    {
    "model": "questionnaire.RankLabel",
    "pk": 6,
    "fields": {
      "title": "6.very satisfied", 
      "rank":"6",
      "order":6     
    }
  }, 
    {
    "model": "questionnaire.RankLabel",
    "pk": 7,
    "fields": {
      "title": "7.totally satisfied", 
      "rank":"7",
      "order": 7    
    }
  } , 
    {
    "model": "questionnaire.Questions",
    "pk": 0,
    "fields": {
      "title": "How satisfied are you with your mental health?", 
      "domain":"Mental health",
      "order": 1    
    }
  } ,  
      {
    "model": "questionnaire.Questions",
    "pk":1,
    "fields": {
      "title": "How satisfied are you with your physical health?", 
      "domain":"Physical health",
      "order":2     
    }
  } , 
      {
    "model": "questionnaire.Questions",
    "pk": 2,
    "fields": {
      "title": "How satisfied are you with your job situation?", 
      "domain":"Job situation",
      "order":3     
    }
  } , 
      {
    "model": "questionnaire.Questions",
    "pk":3 ,
    "fields": {
      "title": "How satisfied are you with your accommodation?", 
      "domain":"Accommodation",
      "order": 4    
    }
  } , 
      {
    "model": "questionnaire.Questions",
    "pk":4 ,
    "fields": {
      "title": "How satisfied are you with your leisure activities?", 
      "domain":"Leisure activities",
      "order": 5    
    }
  } ,     
        {
    "model": "questionnaire.Questions",
    "pk":5 ,
    "fields": {
      "title": "How satisfied are you with your friendships?", 
      "domain":"Friendships",
      "order":6     
    }
  } , 
      {
    "model": "questionnaire.Questions",
    "pk": 6,
    "fields": {
      "title": "How satisfied are you with your close relationships?", 
      "domain":"Close relationships",
      "order":7     
    }
  } , 
      {
    "model": "questionnaire.Questions",
    "pk":7 ,
    "fields": {
      "title": "How satisfied are you with your personal safety?", 
      "domain":"Personal safety",
      "order":8     
    }
  } , 
        {
    "model": "questionnaire.Questions",
    "pk":8 ,
    "fields": {
      "title": "How satisfied are you with your medication?", 
      "domain":"Medication",
      "order":9     
    }
  } , 
      {
    "model": "questionnaire.Questions",
    "pk":9 ,
    "fields": {
      "title": "How satisfied are you with the practical help you receive?", 
      "domain":"Practical help",
      "order": 10    
    }
  } , 
      {
    "model": "questionnaire.Questions",
    "pk":10 ,
    "fields": {
      "title": "How satisfied are you with your meetings with mental health professionals?", 
      "domain":"Meetings",
      "order":11     
    }
  }     
  
 ]   